{
    "antifeatures": {
        "Ads": "Þetta forrit inniheldur auglýsingar",
        "DisabledAlgorithm": "Þetta forrit er með veika öryggisundirritun",
        "KnownVuln": "Þetta forrit inniheldur þekktan öryggisveikleika",
        "NSFW": "Þetta forrit inniheldur efni sem ekki ætti að gefa út eða birta opinberlega",
        "NoSourceSince": "Grunnkóðinn er ekki lengur tiltækur, engar uppfærslur eru mögulegar",
        "NonFreeAdd": "Þetta forrit ýtir undir notkun ófrjálsra viðbóta",
        "NonFreeAssets": "Þetta forrit inniheldur ófrjáls tilföng",
        "NonFreeDep": "Þetta forrit er háð öðrum ófrjálsum forritum",
        "NonFreeNet": "Þetta forrit ýtir undir eða er háð notkun ófrjálsrar netþjónustu",
        "Tracking": "Þetta forrit fylgist með og gefur skýrslu um hegðun þína",
        "UpstreamNonFree": "Grunnkóði útgefanda er ekki fullkomlega frjáls"
    },
    "app_categories": {
        "Connectivity": "Tengingar",
        "Development": "Þróun",
        "Games": "Leikir",
        "Graphics": "Myndefni",
        "Internet": "Internetið",
        "Money": "Fjármál",
        "Multimedia": "Margmiðlun",
        "Navigation": "Yfirsýn",
        "Phone & SMS": "Símar og SMS",
        "Reading": "Lestur",
        "Science & Education": "Menntun og vísindi",
        "Security": "Öryggi",
        "Sports & Health": "Íþróttir og heilsa",
        "System": "Kerfi",
        "Theming": "Þemu",
        "Time": "Tímastjórnun",
        "Writing": "Skrifa",
        "show_all_packages": "Skoða allt %d"
    },
    "index": {
        "download_fdroid": "Sækja F-Droid",
        "gpg_signature": "PGP-undirritun",
        "introduction": "F-Droid er uppsetjanleg yfirlitsskrá með FOSS-forritum (frjálsum og opnum hugbúnaði) fyrir Android-stýrikerfin. F-Droid forritið einfaldar mjög skoðun og uppsetningu á forritum, auk þess að halda utan um uppfærslur þeirra á tækinu þínu.",
        "screenshot": "Skjámynd af F-Droid Android-forritinu",
        "title": "Hvað er F-Droid?"
    },
    "mirrors": {
        "cn": "Meginland Kína",
        "de": "Þýskaland",
        "indiana": "Indiana, BNA",
        "se": "Svíþjóð",
        "tw": "Taívan",
        "ua": "Úkraína"
    },
    "navigation": {
        "about": "Um F-Droid",
        "apps": "Forrit",
        "contribute": "Taka þátt",
        "documentation": "Hjálparskjöl",
        "edit_on_gitlab": "Breyta á GitLab",
        "forum": "Vefspjall",
        "issues": "Vandamál",
        "news": "Fréttir",
        "translate_on_weblate": "Þýða á Weblate"
    },
    "news": {
        "by": "frá",
        "newer_posts": "← Nýrri færslur",
        "older_posts": "Eldri færslur →",
        "posted_on": "Birt þann {{ post_date }}"
    },
    "package": {
        "added_on": "Bætt við þann {{ package_added_date }}",
        "anti_features": "Neikvæðir eiginleikar",
        "anti_features_warning": "Þetta forrit er með eiginleika sem þér gætu mislíkað.",
        "author": "Höfundur",
        "build_log": "Atvikaskrá við byggingu (build log)",
        "build_metadata": "Byggja lýsigögn",
        "changelog": "Breytingaskrá",
        "donate": "Styrkja",
        "download": "Sækja {{ file_extension }}",
        "flattr": "Flattr",
        "gpg_signature": "PGP-undirritun",
        "issue_tracker": "Verkskrásetjari (tracker)",
        "liberapay": "Liberapay",
        "license": "Notkunarleyfi",
        "minimum_android_version": "Þessi útgáfa krefst Android {{ android_version }} eða nýrri.",
        "new_in_version": "Nýtt í útgáfu {{ latest_version }}",
        "opencollective": "Open Collective",
        "package_icon_alt": "táknmynd pakka",
        "package_screenshot_alt": "skjámynd forrits",
        "packages": "Pakkar",
        "permissions": "Heimildir",
        "signed_by_developer": "Byggt og undirritað af upprunalegum forritara.",
        "signed_by_fdroid": "Það er byggt og undirritað af F-Droid, og ábyrgst er að það samsvari <a href=\"{{ source_code_url }}\">þessum grunnkóðapakka</a> (source tarball).",
        "source_code": "Upprunakóði",
        "suggest_downloading_via_fdroid": "Þrátt fyrir að niðurhalaðir APK-pakkar séu til taks hér fyrir neðan og gefi þér kost á að velja slíka uppsetningu, þá þarftu að vera meðvitaður um að með slíkri uppsetningu muntu ekki fá tilkynningar um uppfærslur og að þetta er ekki eins örugg leið við að sækja forrit. Við mælum eindregið með því að þú náir í F-Droid forritið og notir það.",
        "suggested": "stungið uppá",
        "translation": "Þýðing",
        "version_info": "<b>Útgáfa {{ package_version }}</b> ({{ package_version_code }})",
        "versions": "Útgáfur",
        "website": "Vefsvæði"
    },
    "permissions": {
        "permdesc_acceptHandovers": "Leyfir forritinu að halda áfram með símtal sem hófst í öðru forriti.",
        "permdesc_accessBackgroundLocation": "Þetta forrit hefur aðgang að staðsetningu hvenær sem er, jafnvel þegar forritið er ekki í notkun.",
        "permdesc_accessCoarseLocation": "Þetta forrit getur sótt áætlaða staðsetningu þína í staðsetningarþjónustu þegar forritið er í notkun. Kveikt verður að vera á staðsetningarþjónustu fyrir tækið þitt til að forritið geti sótt staðsetninguna.",
        "permdesc_accessDrmCertificates": "Leyfir forriti að úthluta og nota DRM-vottorð. Ætti aldrei að þurfa fyrir venjuleg forrit.",
        "permdesc_accessFineLocation": "Þetta forrit getur sótt nákvæma staðsetningu þína í staðsetningarþjónustu þegar forritið er í notkun. Kveikt verður að vera á staðsetningarþjónustu fyrir tækið þitt til að forritið geti sótt staðsetninguna. Þetta gæti aukið rafhlöðunotkun.",
        "permdesc_accessImsCallService": "Leyfir forriti að nota IMS-þjónustu til að hringja án inngrips frá þér.",
        "permdesc_accessLocationExtraCommands": "Leyfir forriti að fá aðgang að fleiri skipunum staðsetningarveitu. Þetta getur gert forritinu kleift að hafa áhrif á virkni GPS og annars staðsetningarbúnaðar.",
        "permdesc_accessNetworkConditions": "Leyfir forriti að hlusta eftir breytingum á netskilyrðum. Ætti aldrei að vera nauðsynlegt fyrir venjuleg forrit.",
        "permdesc_accessNetworkState": "Leyfir forriti að skoða upplýsingar um nettengingar, svo sem hvaða net eru til og eru tengd.",
        "permdesc_accessNotifications": "Leyfir forriti að sækja, skoða og hreinsa tilkynningar, þ. á m. þær sem önnur forrit birta.",
        "permdesc_accessWifiState": "Leyfir forriti að skoða upplýsingar um Wi-Fi net, svo sem hvort Wi-Fi er virkt og heiti tengdra Wi-Fi tækja.",
        "permdesc_accessWimaxState": "Leyfir forriti að greina hvort WiMAX er virkt og upplýsingar um tengd WiMAX-net.",
        "permdesc_access_notification_policy": "Leyfir forriti að lesa og skrifa í grunnstillingu „Ónáðið ekki“.",
        "permdesc_activityRecognition": "Þetta forrit getur greint hreyfingu þína.",
        "permdesc_addVoicemail": "Leyfir forriti að bæta skilaboðum við talhólfið þitt.",
        "permdesc_answerPhoneCalls": "Heimilar forritinu að svara símtali sem berst.",
        "permdesc_audioWrite": "Leyfir forritinu að breyta tónlistarsafninu þínu.",
        "permdesc_backgroundCamera": "Þetta forrit getur tekið myndir og tekið upp myndskeið með myndavélinni hvenær sem er.",
        "permdesc_bindCarrierMessagingService": "Leyfir forriti að bindast efsta viðmótslagi skilaboðaþjónustu símafyrirtækis. Ætti aldrei að vera nauðsynlegt fyrir venjuleg forrit.",
        "permdesc_bindCarrierServices": "Leyfir handhafa að bindast þjónustu símafyrirtækis. Ætti aldrei að vera nauðsynlegt fyrir venjuleg forrit.",
        "permdesc_bindCellBroadcastService": "Heimilar forritinu að bindast endurvarpseiningunni til að framsenda skilaboð frá endurvarpa þegar þau berast. Viðvaranir frá endurvarpa berast á tilteknum stöðum til að vara þig við neyðarástandi. Spilliforrit geta truflað afköst eða virkni tækisins þegar neyðarboð berast frá endurvarpa.",
        "permdesc_bindConditionProviderService": "Leyfir handhafa að bindast efsta viðmótslagi skilyrðaveitu. Ætti aldrei að vera nauðsynlegt fyrir venjuleg forrit.",
        "permdesc_bindDreamService": "Leyfir handhafa að bindast efsta viðmótslagi skjávaraþjónustu. Ætti aldrei að vera nauðsynlegt fyrir venjuleg forrit.",
        "permdesc_bindNotificationListenerService": "Leyfir forriti að bindast efsta viðmótslagi hlustunarþjónustu tilkynninga. Ætti aldrei að vera nauðsynlegt fyrir venjuleg forrit.",
        "permdesc_bind_connection_service": "Leyfir forritinu að hafa samskipti við símafyrirtæki til að hringja/taka á móti símtölum.",
        "permdesc_bind_incall_service": "Leyfir forriti að stjórna því hvenær og hvernig notandi sér símtalsskjá.",
        "permdesc_bluetooth": "Leyfir forriti að skoða grunnstillingu Bluetooth í símanum og koma á og samþykkja tengingar við pöruð tæki.",
        "permdesc_bluetoothAdmin": "Leyfir forriti að stilla Bluetooth-símann og finna og parast við fjartengd tæki.",
        "permdesc_bluetooth_advertise": "Leyfir forritinu að birta nálægum Bluetooth-tækjum auglýsingar",
        "permdesc_bluetooth_connect": "Leyfir forritinu að tengjast pöruðum Bluetooth-tækjum",
        "permdesc_bluetooth_scan": "Leyfir forritinu að finna nálæg Bluetooth-tæki og parast við þau",
        "permdesc_bodySensors": "Veitir forritinu aðgang að gögnum frá skynjurum sem fylgjast með líkamsstarfsemi þinni, svo sem hjartslætti.",
        "permdesc_bodySensors_background": "Veitir forritinu aðgang að gögnum frá líkamsskynjurum, svo sem um hjartslátt, hitastig og súrefnismettun í blóði á meðan forritið keyrir í bakgrunni.",
        "permdesc_broadcastSticky": "Leyfir forriti að senda viðvarandi tilkynningar, sem eru áfram í gangi eftir birtingu. Of mikil notkun þeirra getur hægt á virkni símans eða gert hann óstöðugan með því að nota of mikið af minni hans.",
        "permdesc_callCompanionApp": "Leyfir forritinu að sjá og stjórna hringdum símtölum í tækinu. Þar á meðal eru upplýsingar á borð við símanúmer í símtölum og stöður símtala.",
        "permdesc_callPhone": "Leyfir forriti að hringja í símanúmer án íhlutunar notanda. Þetta getur haft í för með sér óumbeðin gjöld og símtöl. Athugaðu að þetta leyfir forritinu ekki að hringja í neyðarnúmer. Spilliforrit geta stofnað til kostnaðar fyrir þig með því að hringja símtöl án þinnar heimildar.",
        "permdesc_camera": "Þetta forrit getur tekið myndir og tekið upp myndskeið með myndavélinni þegar forritið er í notkun.",
        "permdesc_cameraOpenCloseListener": "Þetta forrit getur tekið við svörum þegar verið er að opna eða loka myndavél í hvaða forriti sem er.",
        "permdesc_changeNetworkState": "Leyfir forriti að breyta stöðu nettengingar.",
        "permdesc_changeTetherState": "Leyfir forriti að breyta stöðu tjóðraðrar nettengingar.",
        "permdesc_changeWifiMulticastState": "Leyfir forriti að taka á móti pökkum sem sendir eru til allra tækja innan þráðlauss nets með fjöldasendingum, ekki bara símans þíns. Það gengur hraðar á rafhlöðuna en stilling án fjöldasendinga.",
        "permdesc_changeWifiState": "Leyfir forriti að tengjast og aftengjast Wi-Fi aðgangsstöðum og gera breytingar á grunnstillingu tækisins fyrir Wi-Fi net.",
        "permdesc_changeWimaxState": "Leyfir forriti að tengja og aftengja símann við WiMAX-net.",
        "permdesc_connection_manager": "Leyfir forritinu að stjórna símatengingum.",
        "permdesc_control_incall_experience": "Leyfir forriti að birta notendaviðmót innan símtals.",
        "permdesc_createNetworkSockets": "Leyfir forriti að búa til nettengla og nota sérstilltar netsamskiptareglur. Vafrinn og önnur forrit geta sjálf sent gögn inn á internetið svo þessi heimild er ekki þörf til að senda gögn á internetið.",
        "permdesc_disableKeyguard": "Leyfir forriti að slökkva á símalásnum og öðrum öryggisaðgerðum tengdum aðgangsorði. Til dæmis gerir síminn lásinn óvirkan þegar símtal berst og læsist svo aftur að símtali loknu.",
        "permdesc_enableCarMode": "Leyfir forriti að kveikja á bílastillingu.",
        "permdesc_exemptFromAudioRecordRestrictions": "Veittu forritinu undanþágu frá takmörkunum á hljóðupptökum.",
        "permdesc_expandStatusBar": "Leyfir forriti að stækka og minnka stöðustikuna.",
        "permdesc_foregroundService": "Leyfir forritinu að nota þjónustu sem er í forgrunni.",
        "permdesc_fullScreenIntent": "Gerir forritinu kleift að birta tilkynningar sem aðgerðir á öllum skjánum á læstu tæki",
        "permdesc_getAccounts": "Leyfir forriti að fá lista yfir reikninga sem síminn þekkir. Þar á meðal kunna að vera reikningar stofnaðir af forritum sem þú hefur sett upp.",
        "permdesc_getPackageSize": "Leyfir forriti að sækja stærðir kóða, gagna og skyndiminnis síns",
        "permdesc_getTasks": "Leyfir forriti að sækja upplýsingar um opin forrit og forrit sem nýlega hafa verið opin. Þetta getur gert forritinu kleift að nálgast upplýsingar um forritin sem notuð eru í tækinu.",
        "permdesc_handoverStatus": "Leyfir þessu forriti að fá upplýsingar um flutning sem fram fer með Android Beam",
        "permdesc_highSamplingRateSensors": "Leyfir forritinu að nota upptökutíðni yfir 200 Hz fyrir skynjaragögn",
        "permdesc_imagesWrite": "Leyfir forritinu að breyta myndasafninu þínu.",
        "permdesc_install_shortcut": "Leyfir forriti að bæta flýtileiðum á heimaskjá án inngrips notanda.",
        "permdesc_invokeCarrierSetup": "Leyfir forriti að ræsa grunnstillingarforrit frá símafyrirtæki. Ætti aldrei að vera nauðsynlegt fyrir venjuleg forrit.",
        "permdesc_killBackgroundProcesses": "Leyfir forriti að loka bakgrunnsferlum annarra forrita. Þetta getur valdið því að önnur forrit lokist.",
        "permdesc_manageFace": "Leyfir forritinu að beita aðferðum til að bæta við og eyða andlitssniðmátum til notkunar.",
        "permdesc_manageFingerprint": "Gerir forritinu kleift að beita aðferðum til að bæta við og eyða fingrafarasniðmátum til notkunar.",
        "permdesc_manageNetworkPolicy": "Leyfir forriti að vinna með netstefnur og tilgreina sérstakar reglur fyrir forritið.",
        "permdesc_manageOngoingCalls": "Leyfir forriti að sjá upplýsingar um og stjórna símtölum sem eru í gangi í tækinu þínu.",
        "permdesc_manageOwnCalls": "Heimilar forritinu að senda símtöl sín gegnum kerfið til að bæta gæði símtalsins.",
        "permdesc_manageProfileAndDeviceOwners": "Leyfir forritum að stilla eigendur sniða og eiganda tækisins.",
        "permdesc_mediaLocation": "Leyfir forritinu að lesa staðsetningar úr efnissafninu þínu.",
        "permdesc_modifyAudioSettings": "Leyfir forriti að breyta altækum hljóðstillingum, s.s. hljóðstyrk og hvaða hátalari er notaður sem úttak.",
        "permdesc_modifyNetworkAccounting": "Leyfir forriti að breyta því hvernig netnotkun forrita er reiknuð. Venjuleg forrit eiga ekki að nota þetta.",
        "permdesc_nearby_wifi_devices": "Leyfir forritinu að auglýsa, tengja og áætla staðsetningu nálægra WiFi-tækja",
        "permdesc_nfc": "Leyfir forriti að eiga samskipti við NFC-merki, -spjöld og -lesara (nándarsamskipti).",
        "permdesc_persistentActivity": "Leyfir forriti að gera hluta sjálfs sín varanlega í minni. Þetta getur takmarkað það minni sem býðst öðrum forritum og þannig hægt á símanum.",
        "permdesc_postNotification": "Leyfir forritinu að sýna tilkynningar",
        "permdesc_preferredPaymentInfo": "Gerir forritinu kleift að fá valda NFC-greiðsluþjónustu, svo sem skráða aðstoð og áfangastað leiðar.",
        "permdesc_processOutgoingCalls": "Leyfir forriti að sjá símanúmerið þegar símtöl eru hringd, með möguleika á að beina símtalinu áfram á annað númer eða hætta alveg við símtalið.",
        "permdesc_queryAllPackages": "Leyfir forriti að sjá alla uppsetta pakka.",
        "permdesc_readBasicPhoneState": "Leyfir forritinu að fá aðgang að grunneiginleikum símaþjónustu tækisins.",
        "permdesc_readCalendar": "Þetta forrit getur lesið alla dagatalsviðburði sem eru vistaðir í símanum og deilt eða vistað dagatalsgögnin þín.",
        "permdesc_readCallLog": "Þetta forrit getur lesið símtalaferilinn þinn.",
        "permdesc_readCellBroadcasts": "Leyfir forriti að lesa skilaboð frá endurvarpa sem tækið móttekur. Viðvaranir frá endurvarpa berast á tilteknum stöðum til að vara þig við neyðarástandi. Spilliforrit geta truflað afköst eða virkni tækisins þegar neyðarboð berast frá endurvarpa.",
        "permdesc_readContacts": "Leyfir forritinu að lesa gögn um tengiliði sem vistuð eru í símanum þínum. Forrit munu einnig hafa aðgang að reikningum í símanum sem hafa búið til tengiliði. Þar á meðal geta verið reikningar sem forrit sem þú hefur sett upp hafa stofnað. Þessi heimild gerir forritum kleift að vista tengiliðagögnin þín og spilliforrit kunna að deila tengiliðaupplýsingum án þinnar vitundar.",
        "permdesc_readHistoryBookmarks": "Leyfir forriti að lesa feril allra vefslóða sem opnaðar hafa verið í vafranum og öll bókamerki vafrans. Athugaðu: Ekki er víst að þessi heimild sé virt í vöfrum frá þriðja aðila eða öðrum forritum með vafraeiginleika.",
        "permdesc_readInstallSessions": "Leyfir forriti að lesa uppsetningarlotur. Þetta gerir því kleift að sjá upplýsingar um virkar pakkauppsetningar.",
        "permdesc_readMediaAudio": "Leyfir forritinu að lesa hljóðskrár úr samnýtta geymslurýminu þínu.",
        "permdesc_readMediaImages": "Leyfir forritinu að lesa myndskrár úr samnýtta geymslurýminu þínu.",
        "permdesc_readMediaVideo": "Leyfir forritinu að lesa myndskeiðaskrár úr samnýtta geymslurýminu þínu.",
        "permdesc_readNetworkUsageHistory": "Leyfir forriti að lesa söguleg gögn um netnotkun fyrir tiltekin net og forrit.",
        "permdesc_readPhoneNumbers": "Veitir forritinu aðgang að símanúmerum tækisins.",
        "permdesc_readPhoneState": "Leyfir forriti að fá aðgang að símaeiginleikum tækisins. Þessi heimild gerir forritinu kleift að komast að símanúmeri og auðkennum tækisins, hvort símtal er í gangi og símanúmeri viðmælanda í símtali.",
        "permdesc_readSms": "Þetta forrit getur lesið öll SMS-skilaboð (textaskilaboð) sem eru vistuð í símanum.",
        "permdesc_readSyncSettings": "Leyfir forriti að lesa kosti samstillingar fyrir reikning. Þetta er til dæmis hægt að nota til að komast að því hvort forritið Fólk er samstillt við reikning.",
        "permdesc_readSyncStats": "Leyfir forriti að lesa talnagögn samstillingar fyrir reikning, þ.á.m. feril samstillingaratvika og samstillt gagnamagn.",
        "permdesc_receiveBootCompleted": "Leyfir forriti að ræsa sig um leið og kerfið hefur lokið við ræsingu. Þetta getur tafið ræsingu símans og valdið því að forritið hægir á allri virkni símans með því að vera stöðugt í gangi.",
        "permdesc_receiveMms": "Leyfir forriti að taka á móti og vinna úr MMS-skilaboðum. Þetta þýðir að forritið getur fylgst með eða eytt skilaboðum sem send eru í tækið án þess að birta þér þau.",
        "permdesc_receiveSms": "Leyfir forriti að taka á móti og vinna úr SMS-skilaboðum. Þetta þýðir að forritið getur fylgst með eða eytt skilaboðum sem send eru í tækið án þess að birta þér þau.",
        "permdesc_receiveWapPush": "Leyfir forriti að taka á móti og vinna úr WAP-skilaboðum. Þessi heimild felur í sér möguleikann á að fylgjast með eða eyða skilaboðum sem þér eru send án þess að birta þér þau.",
        "permdesc_recordAudio": "Þetta forrit getur tekið upp hljóð með hljóðnemanum meðan forritið er í notkun.",
        "permdesc_recordBackgroundAudio": "Þetta forrit getur tekið upp hljóð með hljóðnemanum hvenær sem er.",
        "permdesc_register_call_provider": "Leyfir forritinu að skrá nýjar símatengingar.",
        "permdesc_register_sim_subscription": "Leyfir forritinu að skrá nýjar símatengingar fyrir SIM-kort.",
        "permdesc_removeDrmCertificates": "Leyfir forriti að fjarlægja DRM-vottorð. Ætti aldrei að vera nauðsynlegt fyrir venjuleg forrit.",
        "permdesc_reorderTasks": "Leyfir forriti að færa verk á milli forgrunns og bakgrunns. Forritið getur gert þetta án inngrips frá þér.",
        "permdesc_requestDeletePackages": "Leyfir forriti að biðja um eyðingu pakka.",
        "permdesc_requestIgnoreBatteryOptimizations": "Gerir forriti kleift að biðja um heimild til að hunsa rafhlöðusparnað fyrir forritið.",
        "permdesc_requestInstallPackages": "Leyfir forriti að fara fram á uppsetningu pakka.",
        "permdesc_requestPasswordComplexity": "Leyfir forritinu að læra hversu flókinn skjálásinn er (erfiður, miðlungs, léttur eða enginn), sem gefur til kynna lengd og tegund skjálássins. Forritið getur einnig lagt til að notendur geri skjálásinn flóknari upp að tilteknu marki, en notendur geta valið að hunsa það og halda áfram að vafra. Hafðu í huga að skjálásinn er ekki geymdur í ódulkóðuðum texta svo forritið veit ekki nákvæmt aðgangsorð.",
        "permdesc_route_media_output": "Leyfir forriti að beina margmiðlunarúttaki til annarra ytri tækja.",
        "permdesc_runInBackground": "Þetta forrit getur verið í gangi í bakgrunni. Þetta gæti aukið á rafhlöðunotkunina.",
        "permdesc_sdcardRead": "Leyfir forritinu að lesa innihald samnýtta geymslurýmisins.",
        "permdesc_sdcardWrite": "Leyfir forriti að skrifa í innihald samnýtta geymslurýmisins.",
        "permdesc_sendSms": "Leyfir forriti að senda SMS-skilaboð. Þetta getur valdið óvæntri gjaldtöku. Spilliforrit geta kostað þig peninga með því að senda skilaboð án staðfestingar frá þér.",
        "permdesc_setAlarm": "Leyfir forriti að stilla vekjara á uppsettri vekjaraklukku. Verið getur að sum vekjaraklukkuforrit séu ekki búin þessum eiginleika.",
        "permdesc_setInputCalibration": "Leyfir forriti að breyta kvörðunarbreytum snertiskjásins. Ætti aldrei að vera nauðsynlegt fyrir venjuleg forrit.",
        "permdesc_setTimeZone": "Leyfir forriti að breyta tímabelti símans.",
        "permdesc_setWallpaper": "Leyfir forriti að velja veggfóður kerfisins.",
        "permdesc_setWallpaperHints": "Leyfir forriti að stilla stærðarleiðréttingu veggfóðurs í kerfinu.",
        "permdesc_sim_communication": "Leyfir forriti að senda SIM-kortinu skipanir. Þetta er mjög hættulegt.",
        "permdesc_startReviewPermissionDecisions": "Gerir notandanum kleift að opna skjá til að fara yfir ákvarðanir um heimildir. Þetta ætti aldrei að þurfa fyrir venjuleg forrit.",
        "permdesc_startViewAppFeatures": "Leyfir handhafa að skoða upplýsingar um eiginleika tiltekins forrits.",
        "permdesc_startViewPermissionUsage": "Leyfir handhafa að byrja heimildanotkun fyrir forrit. Ætti aldrei að þurfa fyrir venjuleg forrit.",
        "permdesc_statusBar": "Leyfir forriti að slökkva á stöðustikunni eða bæta við og fjarlægja kerfistákn.",
        "permdesc_statusBarService": "Leyfir forriti að vera stöðustikan.",
        "permdesc_subscribedFeedsRead": "Leyfir forriti að fá upplýsingar um straumana sem samstilltir eru á hverjum tíma.",
        "permdesc_systemAlertWindow": "Þetta forrit getur birst yfir öðrum forritum eða öðrum hlutum skjásins. Þetta getur truflað venjulega notkun forrita og breytt því hvernig önnur forrit birtast.",
        "permdesc_systemCamera": "Þetta forgangs- eða kerfisforrit hefur heimild til að taka myndir og taka upp myndskeið með myndavél kerfisins hvenær sem er. Forritið þarf einnig að vera með heimildina android.permission.CAMERA",
        "permdesc_transmitIr": "Leyfir forriti að nota innrauðan sendi símans.",
        "permdesc_uninstall_shortcut": "Leyfir forriti að fjarlægja flýtileiðir af heimaskjá án inngrips notanda.",
        "permdesc_useBiometric": "Leyfir forritinu að nota búnað fyrir líffræðileg gögn til auðkenningar",
        "permdesc_useDataInBackground": "Þetta forrit getur notað gagnamagn í bakgrunni. Þetta gæti aukið notkun gagnamagns.",
        "permdesc_useFaceAuthentication": "Leyfir forritinu að nota andlitsopnunarvélbúnað til auðkenningar",
        "permdesc_useFingerprint": "Leyfir forritinu að nota fingrafarabúnað til auðkenningar",
        "permdesc_use_sip": "Leyfir forritinu að hringja og svara SIP-símtölum.",
        "permdesc_uwb_ranging": "Leyfa forritinu að ákvarða fjarlægð milli nálægra tækja með ofurbreiðband",
        "permdesc_vibrate": "Leyfir forriti að stjórna titraranum.",
        "permdesc_vibrator_state": "Veitir forritinu aðgang að stöðu titrings.",
        "permdesc_videoWrite": "Leyfir forritinu að breyta myndskeiðasafninu þínu.",
        "permdesc_wakeLock": "Leyfir forriti að koma í veg fyrir að síminn fari í biðstöðu.",
        "permdesc_writeCalendar": "Þetta forrit getur bætt við, fjarlægt eða breytt dagatalsviðburðum í símanum. Þetta forrit getur sent skilaboð sem geta virst koma ffrá eigendum dagatala eða breytt viðburðum án þess að láta eigendurna vita.",
        "permdesc_writeCallLog": "Leyfir forriti að breyta símtalaskrá símans, þ. á m. gögnum um hringd og móttekin símtöl. Spilliforrit geta notað þetta til að eyða eða breyta símtalaskránni.",
        "permdesc_writeContacts": "Leyfir forriti að breyta gögnum um tengiliði sem vistuð eru í símanum þínum. Þessi heimild gerir forritum kleift að eyða tengiliðagögnum.",
        "permdesc_writeGeolocationPermissions": "Leyfir forriti að breyta heimildum vafrans fyrir landfræðilega staðsetningu. Spilliforrit geta notað þetta til að leyfa sendingu staðsetningarupplýsinga á vafasöm vefsvæði.",
        "permdesc_writeHistoryBookmarks": "Leyfir forriti að breyta vafraferlinum eða bókamerkjum sem vistuð eru í símanum. Þetta getur gert forritinu kleift að eyða eða breyta vafragögnum. Athugaðu: Ekki er víst að þessi heimild sé virt í vöfrum frá þriðja aðila eða öðrum forritum með vafraeiginleika.",
        "permdesc_writeSettings": "Leyfir forriti að breyta stillingagögnum kerfisins. Spilliforrit geta spillt grunnstillingu kerfisins.",
        "permdesc_writeSyncSettings": "Leyfir forriti að breyta kostum samstillingar fyrir reikning. Þetta er til dæmis hægt að nota til að kveikja á samstillingu forritsins Fólk við reikning.",
        "permgroupbackgroundrequest_location": "Leyfa forritinu að biðja um staðsetningar í bakgrunni.",
        "permgroupbackgroundrequestdetail_location": "Forritið hefur sem stendur aðeins aðgang að staðsetningu þinni á meðan þú notar forritið",
        "permgroupdesc_activityRecognition": "fá aðgang að hreyfingu þinni",
        "permgroupdesc_calendar": "fá aðgang að dagatalinu þínu",
        "permgroupdesc_calllog": "lesa og skrifa símtalaskrá síma",
        "permgroupdesc_camera": "taka myndir og taka upp myndskeið",
        "permgroupdesc_contacts": "fá aðgang að tengiliðunum þínum",
        "permgroupdesc_location": "fá aðgang að staðsetningu þessa tækis",
        "permgroupdesc_microphone": "taka upp hljóð",
        "permgroupdesc_nearby_devices": "finna og tengjast nálægum tækjum",
        "permgroupdesc_notifications": "sýna tilkynningar",
        "permgroupdesc_phone": "hringja og stjórna símtölum",
        "permgroupdesc_readMediaAural": "fáðu aðgang að tónlist og hljóði í tækinu þínu",
        "permgroupdesc_readMediaVisual": "fáðu aðgang að myndum og myndskeiðum á tækinu þínu",
        "permgroupdesc_sensors": "aðgangur að skynjaragögnum yfir lífsmörk þín",
        "permgroupdesc_sms": "senda og skoða SMS-skilaboð",
        "permgroupdesc_storage": "fá aðgang að myndum, efni og skrám í tækinu",
        "permgrouplab_activityRecognition": "Líkamshreyfing",
        "permgrouplab_calendar": "Dagatal",
        "permgrouplab_calllog": "Símtalaskrár",
        "permgrouplab_camera": "Myndavél",
        "permgrouplab_contacts": "Tengiliðir",
        "permgrouplab_location": "Staðsetning",
        "permgrouplab_microphone": "Hljóðnemi",
        "permgrouplab_nearby_devices": "Nálæg tæki",
        "permgrouplab_notifications": "Tilkynningar",
        "permgrouplab_phone": "Sími",
        "permgrouplab_readMediaAural": "Tónlist og hljóð",
        "permgrouplab_readMediaVisual": "Myndir og myndskeið",
        "permgrouplab_sensors": "Líkamsskynjarar",
        "permgrouplab_sms": "SMS",
        "permgrouplab_storage": "Skrár",
        "permgrouprequest_activityRecognition": "Leyfa forritinu að fylgjast með virkni þinni.",
        "permgrouprequest_calendar": "Viltu veita <b>",
        "permgrouprequest_calllog": "Viltu veita <b>",
        "permgrouprequest_camera": "Viltu leyfa <b>",
        "permgrouprequest_contacts": "Viltu veita <b>",
        "permgrouprequest_location": "Viltu veita <b>",
        "permgrouprequest_microphone": "Viltu leyfa <b>",
        "permgrouprequest_phone": "Viltu leyfa <b>",
        "permgrouprequest_sensors": "Viltu veita <b>",
        "permgrouprequest_sms": "Viltu leyfa <b>",
        "permgrouprequest_storage": "Viltu veita <b>",
        "permgrouprequestdetail_location": "Forritið hefur aðeins aðgang að staðsetningunni á meðan þú notar forritið",
        "permission_request_notification_for_app_with_subtitle": "Beiðni um heimild frá",
        "permlab_acceptHandover": "halda áfram með símtal úr öðru forriti",
        "permlab_accessBackgroundLocation": "aðgangur að staðsetningu í bakgrunni",
        "permlab_accessCoarseLocation": "aðgangur að áætlaðri staðsetningu aðeins í forgrunni",
        "permlab_accessDrmCertificates": "aðgangur að DRM-vottorðum",
        "permlab_accessFineLocation": "aðgangur að nákvæmri staðsetningu aðeins í forgrunni",
        "permlab_accessImsCallService": "fá aðgang að IMS-símtalsþjónustu",
        "permlab_accessLocationExtraCommands": "aðgangur að viðbótarskipunum staðsetningarveitu",
        "permlab_accessNetworkConditions": "fylgjast með breytingum á netskilyrðum",
        "permlab_accessNetworkState": "skoða nettengingar",
        "permlab_accessNotifications": "aðgangur að tilkynningum",
        "permlab_accessWifiState": "skoða Wi-Fi tengingar",
        "permlab_accessWimaxState": "tengjast og aftengja frá WiMAX",
        "permlab_access_notification_policy": "aðgangur að „Ónáðið ekki“",
        "permlab_activityRecognition": "greini líkamshreyfingu",
        "permlab_addVoicemail": "bæta við talhólfi",
        "permlab_answerPhoneCalls": "svara símtölum",
        "permlab_audioWrite": "breyti tónlistarsafninu þínu",
        "permlab_backgroundCamera": "taka myndir og taka upp myndskeið í bakgrunni",
        "permlab_bindCarrierMessagingService": "bindast skilaboðaþjónustu símafyrirtækis",
        "permlab_bindCarrierServices": "bindast þjónustu símafyrirtækis",
        "permlab_bindCellBroadcastService": "Framsenda skilaboð frá endurvarpa",
        "permlab_bindConditionProviderService": "bindast þjónustu skilyrðaveitu",
        "permlab_bindDreamService": "bindast skjávaraþjónustu",
        "permlab_bindNotificationListenerService": "bindast hlustunarþjónustu tilkynninga",
        "permlab_bind_connection_service": "hafa samskipti við símafyrirtæki",
        "permlab_bind_incall_service": "eiga samskipti við símtalsskjá",
        "permlab_bluetooth": "parast við Bluetooth-tæki",
        "permlab_bluetoothAdmin": "aðgangur að Bluetooth-stillingum",
        "permlab_bluetooth_advertise": "birta nálægum Bluetooth-tækjum auglýsingar",
        "permlab_bluetooth_connect": "tengjast pöruðum Bluetooth-tækjum",
        "permlab_bluetooth_scan": "finna og parast við nálæg Bluetooth-tæki",
        "permlab_bodySensors": "fá aðgang að líkamsskynjurum (s.s. hjartsláttarmælum)",
        "permlab_bodySensors_background": "Aðgangur að gögnum líkamsskynjara, t.d. um hjartslátt, meðan það er í bakgrunni",
        "permlab_broadcastSticky": "senda út viðvarandi tilkynningu",
        "permlab_callCompanionApp": "sjái og stjórni símtölum í gegnum kerfið.",
        "permlab_callPhone": "hringja beint í símanúmer",
        "permlab_camera": "taka myndir og myndskeið",
        "permlab_cameraOpenCloseListener": "Leyfa forriti eða þjónustu að taka við svörum um myndavélar sem verið er að opna eða loka.",
        "permlab_changeNetworkState": "breyta nettengingu",
        "permlab_changeTetherState": "breyta tjóðrunartengingu",
        "permlab_changeWifiMulticastState": "leyfa móttöku Wi-Fi fjöldasendinga",
        "permlab_changeWifiState": "tengjast og aftengja frá Wi-Fi",
        "permlab_changeWimaxState": "breyta stöðu WiMAX",
        "permlab_connection_manager": "stjórna símatengingum",
        "permlab_control_incall_experience": "bjóða upp á notendaviðmót innan símtals",
        "permlab_createNetworkSockets": "hafa fullan netaðgang",
        "permlab_disableKeyguard": "slökkva á skjálásnum",
        "permlab_enableCarMode": "kveikja á bílastillingu",
        "permlab_exemptFromAudioRecordRestrictions": "gefa undanþágu frá takmörkunum á hljóðupptökum",
        "permlab_expandStatusBar": "stækka/minnka stöðustiku",
        "permlab_foregroundService": "keyra þjónustu í forgrunni",
        "permlab_fullScreenIntent": "birta tilkynningar sem aðgerðir á öllum skjánum á læstu tæki",
        "permlab_getAccounts": "finna reikninga í tækinu",
        "permlab_getPackageSize": "mæla geymslurými forrits",
        "permlab_getTasks": "sækja forrit í gangi",
        "permlab_handoverStatus": "fá flutningsstöðu Android Beam",
        "permlab_highSamplingRateSensors": "aðgangur að skynjaragögnum með hárri upptökutíðni",
        "permlab_imagesWrite": "breyti myndasafninu þínu",
        "permlab_install_shortcut": "setja upp flýtileiðir",
        "permlab_invokeCarrierSetup": "ræsa grunnstillingarforrit frá símafyrirtæki",
        "permlab_killBackgroundProcesses": "loka öðrum forritum",
        "permlab_manageFace": "stjórna vélbúnaði andlitsopnunar",
        "permlab_manageFingerprint": "stjórna fingrafarabúnaði",
        "permlab_manageNetworkPolicy": "hafa umsjón með netstefnu",
        "permlab_manageOngoingCalls": "Stjórna símtölum sem eru í gangi",
        "permlab_manageOwnCalls": "senda símtöl gegnum kerfið",
        "permlab_manageProfileAndDeviceOwners": "stjórna eigendum sniða og tækja",
        "permlab_mediaLocation": "lesa staðsetningar úr efnissafninu þínu",
        "permlab_modifyAudioSettings": "breyta hljóðstillingum",
        "permlab_modifyNetworkAccounting": "breyta skráningu netnotkunar",
        "permlab_nearby_wifi_devices": "eiga í samskiptum við nálæg WiFi-tæki",
        "permlab_nfc": "stjórna nándarsamskiptum (NFC)",
        "permlab_persistentActivity": "láta forrit keyra stöðugt",
        "permlab_postNotification": "sýna tilkynningar",
        "permlab_preferredPaymentInfo": "Upplýsingar um valda NFC-greiðsluþjónustu",
        "permlab_processOutgoingCalls": "endurbeina hringdum símtölum",
        "permlab_queryAllPackages": "spyrja fyrir alla pakka",
        "permlab_readBasicPhoneState": "lesa stöðu og auðkenni grunneiginleika símaþjónustu",
        "permlab_readCalendar": "Lesa dagatalsviðburði og upplýsingar",
        "permlab_readCallLog": "lesa símtalaskrá",
        "permlab_readCellBroadcasts": "lesa skilaboð frá endurvarpa",
        "permlab_readContacts": "lesa tengiliði",
        "permlab_readHistoryBookmarks": "lesa vefbókamerki og -feril",
        "permlab_readInstallSessions": "lesa uppsetningarlotur",
        "permlab_readMediaAudio": "lesa hljóðskrár úr samnýttu geymslurými",
        "permlab_readMediaImages": "lesa myndskrár úr samnýttu geymslurými",
        "permlab_readMediaVideo": "lesa myndskeiðaskrár úr samnýttu geymslurými",
        "permlab_readNetworkUsageHistory": "lesa söguleg gögn um netnotkun",
        "permlab_readPhoneNumbers": "lesa símanúmer",
        "permlab_readPhoneState": "lesa stöðu símans og auðkenni",
        "permlab_readSms": "lesa textaskilaboð (SMS eða MMS)",
        "permlab_readSyncSettings": "lesa samstillingar",
        "permlab_readSyncStats": "lesa talnagögn um samstillingu",
        "permlab_receiveBootCompleted": "keyra við ræsingu",
        "permlab_receiveMms": "taka á móti textaskilaboðum (MMS)",
        "permlab_receiveSms": "taka á móti textaskilaboðum (SMS)",
        "permlab_receiveWapPush": "taka á móti textaskilaboðum (WAP)",
        "permlab_recordAudio": "taka upp hljóð",
        "permlab_recordBackgroundAudio": "taka upp hljóð í bakgrunni",
        "permlab_register_call_provider": "skrá nýjar símatengingar",
        "permlab_register_sim_subscription": "skrá nýjar símatengingar fyrir SIM-kort",
        "permlab_removeDrmCertificates": "fjarlægja DRM-vottorð",
        "permlab_reorderTasks": "endurraða forritum í gangi",
        "permlab_requestDeletePackages": "biðja um eyðingu á pökkum",
        "permlab_requestIgnoreBatteryOptimizations": "biðja um að hunsa rafhlöðusparnað",
        "permlab_requestInstallPackages": "fara fram á uppsetningu pakka",
        "permlab_requestPasswordComplexity": "biðja um flókinn skjálás",
        "permlab_route_media_output": "beina margmiðlunarúttaki",
        "permlab_runInBackground": "keyra í bakgrunni",
        "permlab_sdcardRead": "lesa innihald samnýtta geymslurýmisins",
        "permlab_sdcardWrite": "breyta eða eyða innihaldi samnýtta geymslurýmisins",
        "permlab_sendSms": "senda og skoða SMS-skilaboð",
        "permlab_setAlarm": "stilla vekjara",
        "permlab_setInputCalibration": "breyta kvörðun inntakstækis",
        "permlab_setTimeZone": "stilla tímabelti",
        "permlab_setWallpaper": "velja veggfóður",
        "permlab_setWallpaperHints": "stilla stærð veggfóðurs",
        "permlab_sim_communication": "senda skipanir til SIM-kortsins",
        "permlab_startReviewPermissionDecisions": "opna ákvarðanir um skoðunarheimildir",
        "permlab_startViewAppFeatures": "byrja að skoða eiginleika forrits",
        "permlab_startViewPermissionUsage": "heimildanotkun upphafsyfirlits",
        "permlab_statusBar": "slökkva á eða breyta stöðustiku",
        "permlab_statusBarService": "vera stöðustikan",
        "permlab_subscribedFeedsRead": "lesa strauma í áskrift",
        "permlab_systemAlertWindow": "Þetta forrit getur birst yfir öðrum forritum",
        "permlab_systemCamera": "Veittu forriti eða þjónustu aðgang að myndavélum kerfis til að taka myndir og myndskeið",
        "permlab_transmitIr": "senda innrauð merki",
        "permlab_uninstall_shortcut": "fjarlægja flýtileiðir",
        "permlab_useBiometric": "nota búnað fyrir líffræðileg gögn",
        "permlab_useDataInBackground": "nota gögn í bakgrunni",
        "permlab_useFaceAuthentication": "nota vélbúnað andlitsopnunar",
        "permlab_useFingerprint": "nota fingrafarabúnað",
        "permlab_use_sip": "hringja/svara SIP-símtölum",
        "permlab_uwb_ranging": "ákvarða fjarlægð milli nálægra tækja með ofurbreiðband",
        "permlab_vibrate": "stjórna titringi",
        "permlab_videoWrite": "breyta myndskeiðasafninu þínu",
        "permlab_wakeLock": "koma í veg fyrir að síminn fari í biðstöðu",
        "permlab_writeCalendar": "bæta við eða breyta dagatalsviðburðum og senda gestum tölvupóst að eigendum forspurðum",
        "permlab_writeCallLog": "skrifa símtalaskrá",
        "permlab_writeContacts": "breyta tengiliðunum þínum",
        "permlab_writeGeolocationPermissions": "breyta staðsetningarheimildum vafrans",
        "permlab_writeHistoryBookmarks": "skrifa vefbókamerki og -feril",
        "permlab_writeSettings": "breyta kerfisstillingum",
        "permlab_writeSyncSettings": "kveikja og slökkva á samstillingu"
    },
    "sidebars": {
        "donate": {
            "bank_transfer_name": "Nafn",
            "bitcoin_alt": "Styrkja með Bitcoin",
            "credit_card": "Kreditkort",
            "crypto": "Rafmynt",
            "currency": "Gjaldmiðill",
            "flattr_alt": "Styrkja í gegnum Flattr",
            "heading": "Styrkja",
            "hellotux": "👕 Stuttermabolir 👕 frá",
            "hellotux_alt": "HELLOTUX",
            "hellotux_donation": "F-Droid mun fá 3€ af hverjum seldum bol.",
            "liberapay_alt": "Styrkja í gegnum Liberapay",
            "litecoin_alt": "Styrkja með Litecoin",
            "more_options": "Fleiri valkostir",
            "opencollective_alt": "Styrktu Collective",
            "paypal": "PayPal",
            "paypal_alt": "Styrkja í gegnum PayPal",
            "powered_by_donations": "F-Droid er drifið áfram af styrkjum!",
            "via_bank_transfer": "Bankamillifærsla"
        },
        "lang": {
            "change": "Breyta"
        },
        "last_updated": {
            "heading": "Síðast uppfært"
        },
        "latest_packages": {
            "heading": "Nýjustu forrit"
        },
        "news": {
            "heading": "Fréttir"
        },
        "search": {
            "heading": "Finna forrit",
            "noscript": "Krefst þess að JavaScript sé virkjað",
            "search": "Leita"
        }
    }
}
